{
  "type": "service_account",
  "project_id": "hello-world-project-155807",
  "private_key_id": "85ea77b5282c22128259f39c44b2d99edb00fea2",
  "private_key": "-----BEGIN PRIVATE KEY-----\nMIIEvgIBADANBgkqhkiG9w0BAQEFAASCBKgwggSkAgEAAoIBAQCywpuU8h9f01M/\n7Q9dKYPtXpW+oTh77TI6V2rBHXsBiXPgsICeXsbXXf9gDs6NVXYp52o5AtBEBP0K\nX+EV8rTN6Yc5Hnyjk34BwVVNe7pL97C4eWwEPIizqdVqeH7hcJTxbFfj+IhNJ9Kh\nVyINYxacX05JudxW2zvBdMajh/ILYdUgcVMFLB3ikZ/VlnrpGGadiRjvu/l5szvD\nMiaqo7tj2Bvm72wxND8JMsMB0BVBShrHJH+ws8Fuw73f9iEiMrdiqi4xyu04lvMN\npUAZdVH3TxraXQm8k9xu/Ck960lsascVjaVN6DIRF9anX0nrRhzmarQ9TGI1yFOV\nItHou4QBAgMBAAECggEAO8obf5X8KHDmR1ti6CYamiooq7oAynJrelgCvNS/b6Qp\nvd1LJ61LlH08DUTmkR8khp+AR9FJF3cTq4SmJFEpaDXTpKctyQhr/OpNPb1EcmRG\nF22FU2Vr06vaVeI3je+54YX7X6Sg8i1/pbcfDJs31NWLud0QdXyeX/ZO+iNeMa/Y\nF1zGj9zk/HnRWx+f8I4zNUW6Ho4iaxJGJF8MEbxG14FIO++Yoy+GnsIYNy6peWuL\n5SmhEidMoVup8aa9Mp8AR1PLQwYltFIt4+J5k3SLfQT2fQdbkfed0OWctsS6zAib\n3T0xi1pRKfgnQJ5bWUdGEQ6PUYsrB9K5r+QhLtsYgQKBgQDaVWq51sF4GN3TdmhN\ndAKwKuWyuPFxOKHrtX/f1xz0OqBb2MVn5SwHiLsq4oc5SFDBk+zDMjLrqGxnZjEt\nUNEvznOUHoiOLPqyPtMkaYpq9dOGVzDqvDiLW+lAABukivvyLKM/jFMhsJGGq4ho\nP1FEXZIScqpuTyBNZeG39BNuiwKBgQDRmXNgOlXZcGWHXL1e+TetcBrPjcWpmEbt\nf/6yothWENS3fgCqwgh5242/0Lj36Ejjp/EHqWI0Obl+rqSji4oLbdvxojET/eCe\nWsaNap0uLoLTpfQmLhm7HMAo0Qp8sk3aEtqHSpmW3fyU1UfK+OmkTY6haqZ6OCdy\nKO0wKEYVIwKBgQCfix9sIYRK0FD4v2PEhWuZdB9ZlE/KXonkBkMlPLoJtfWMaEEI\nhKzB7KZo1hPeRfvNGN1AXiRblD1y6XgyFwZlmsVWjWFYE4I2UjZUO1NMicpCNuCm\nB1iCbW1quSl5+Z3V/8xjGZV93trYv+vz0aD/BilBlcz4wpVmOXbRx2eTtQKBgAxM\nCXXa1lCUhJBlg4K/8mFNk3Ub5z3k/jxO5x2J6lFaWXCOhvF9wsuLcwyO7Vs2GJiq\nsLx3Vpijzls9WdFyjV3QSzgpAOIgYf5Iax++4ovkFK7gLKvUxpOwwyFh6lCYkXK6\n6nFHki1Ext3giX7CDcsi9bxIqo2/H6lV91x88GerAoGBALkutkVgj5tkEVXJ9G9q\nKUwBbcXwT6voKVn8p/wEcDqjisu7n8wOi4psf7vROzE0nY63B6IZ3VS+6LwbRvF5\nyfDGVIbnnaLjnXHtXHaL0GuXbs7riKF6phnA6kUCBh8KwU/sbYgjTsZqfRGCK/ZN\nLHYg31fr9VlvavB0f/v2gYEU\n-----END PRIVATE KEY-----\n",
  "client_email": "anuj-account@hello-world-project-155807.iam.gserviceaccount.com",
  "client_id": "109221809251952901426",
  "auth_uri": "https://accounts.google.com/o/oauth2/auth",
  "token_uri": "https://accounts.google.com/o/oauth2/token",
  "auth_provider_x509_cert_url": "https://www.googleapis.com/oauth2/v1/certs",
  "client_x509_cert_url": "https://www.googleapis.com/robot/v1/metadata/x509/anuj-account%40hello-world-project-155807.iam.gserviceaccount.com"
}
